%YAML 1.1
%TAG !u! tag:unity3d.com,2011:
--- !u!114 &11400000
MonoBehaviour:
  m_ObjectHideFlags: 0
  m_PrefabParentObject: {fileID: 0}
  m_PrefabInternal: {fileID: 0}
  m_GameObject: {fileID: 0}
  m_Enabled: 1
  m_EditorHideFlags: 0
  m_Script: {fileID: 11500000, guid: 2b614757a05fc6d4291c48f9de3bf924, type: 3}
  m_Name: Character_illuminated
  m_EditorClassIdentifier: 
  _key: illuminated
  _isPlayable: 1
  _isDefault: 1
  _element: 0
  _image: {fileID: 21300000, guid: 87009c0625a124ba490bd5e293c0ed85, type: 3}
  _thumbnailImage: {fileID: 21300000, guid: 87009c0625a124ba490bd5e293c0ed85, type: 3}
  _battlerImage: {fileID: 21300000, guid: cc9836b0c9d4746db8a3c2958390e287, type: 3}
  _price: 300
  _startLife: 900
  _maxLife: 3000
  _lifeCurve:
    serializedVersion: 2
    m_Curve:
    - time: 0
      value: 0
      inSlope: 2
      outSlope: 2
      tangentMode: 0
    - time: 1
      value: 1
      inSlope: 0
      outSlope: 0
      tangentMode: 0
    m_PreInfinity: 2
    m_PostInfinity: 2
    m_RotationOrder: 0
  _startDamage: 36
  _maxDamage: 800
  _damageCurve:
    serializedVersion: 2
    m_Curve:
    - time: 0
      value: 0
      inSlope: 2
      outSlope: 2
      tangentMode: 0
    - time: 1
      value: 1
      inSlope: 0
      outSlope: 0
      tangentMode: 0
    m_PreInfinity: 2
    m_PostInfinity: 2
    m_RotationOrder: 0
  _startReparation: 200
  _maxReparation: 999
  _reparationCurve:
    serializedVersion: 2
    m_Curve:
    - time: 0
      value: 0
      inSlope: 2
      outSlope: 2
      tangentMode: 0
    - time: 1
      value: 1
      inSlope: 0
      outSlope: 0
      tangentMode: 0
    m_PreInfinity: 2
    m_PostInfinity: 2
    m_RotationOrder: 0
  _startTaunt: 60
  _maxTaunt: 999
  _tauntCurve:
    serializedVersion: 2
    m_Curve:
    - time: 0
      value: 0
      inSlope: 2
      outSlope: 2
      tangentMode: 0
    - time: 1
      value: 1
      inSlope: 0
      outSlope: 0
      tangentMode: 0
    m_PreInfinity: 2
    m_PostInfinity: 2
    m_RotationOrder: 0
  _hability: 2
  _tokensToHability: 15
  _timeToRestartEnemyStats: 3
  _habilityReadyParticleSystem: {fileID: 19816072, guid: 9e019feaf740d4117b3c704d23a44855,
    type: 2}
